{
  "properties": [
    {
      "name": "app.subscriber.address",
      "type": "java.lang.String",
      "description": "Description for app.subscriber.address."
    },
    {
      "name": "app.subscriber.port",
      "type": "java.lang.String",
      "description": "Description for app.subscriber.port."
    }
  ] }